%!PS-Adobe-3.0 EPSF-3.0
%%Creator: cairo 1.10.0 (http://cairographics.org)
%%CreationDate: Wed Dec 14 23:29:57 2011
%%Pages: 1
%%BoundingBox: 0 -1 384 385
%%DocumentData: Clean7Bit
%%LanguageLevel: 2
%%EndComments
%%BeginProlog
/cairo_eps_state save def
/dict_count countdictstack def
/op_count count 1 sub def
userdict begin
/q { gsave } bind def
/Q { grestore } bind def
/cm { 6 array astore concat } bind def
/w { setlinewidth } bind def
/J { setlinecap } bind def
/j { setlinejoin } bind def
/M { setmiterlimit } bind def
/d { setdash } bind def
/m { moveto } bind def
/l { lineto } bind def
/c { curveto } bind def
/h { closepath } bind def
/re { exch dup neg 3 1 roll 5 3 roll moveto 0 rlineto
      0 exch rlineto 0 rlineto closepath } bind def
/S { stroke } bind def
/f { fill } bind def
/f* { eofill } bind def
/n { newpath } bind def
/W { clip } bind def
/W* { eoclip } bind def
/BT { } bind def
/ET { } bind def
/pdfmark where { pop globaldict /?pdfmark /exec load put }
    { globaldict begin /?pdfmark /pop load def /pdfmark
    /cleartomark load def end } ifelse
/BDC { mark 3 1 roll /BDC pdfmark } bind def
/EMC { mark /EMC pdfmark } bind def
/cairo_store_point { /cairo_point_y exch def /cairo_point_x exch def } def
/Tj { show currentpoint cairo_store_point } bind def
/TJ {
  {
    dup
    type /stringtype eq
    { show } { -0.001 mul 0 cairo_font_matrix dtransform rmoveto } ifelse
  } forall
  currentpoint cairo_store_point
} bind def
/cairo_selectfont { cairo_font_matrix aload pop pop pop 0 0 6 array astore
    cairo_font exch selectfont cairo_point_x cairo_point_y moveto } bind def
/Tf { pop /cairo_font exch def /cairo_font_matrix where
      { pop cairo_selectfont } if } bind def
/Td { matrix translate cairo_font_matrix matrix concatmatrix dup
      /cairo_font_matrix exch def dup 4 get exch 5 get cairo_store_point
      /cairo_font where { pop cairo_selectfont } if } bind def
/Tm { 2 copy 8 2 roll 6 array astore /cairo_font_matrix exch def
      cairo_store_point /cairo_font where { pop cairo_selectfont } if } bind def
/g { setgray } bind def
/rg { setrgbcolor } bind def
/d1 { setcachedevice } bind def
%%EndProlog
%%Page: 1 1
%%BeginPageSetup
%%PageBoundingBox: 0 -1 384 385
%%EndPageSetup
q 0 -1 384 386 rectclip q
0 384.004 384 -385 re W n
0 g
185.988 6.254 m 179.738 12.512 l 192.406 25.164 l 198.652 18.914 l 
204.902 12.668 l 192.234 0 l h
139.469 14.461 m 151.98 26.957 l 164.477 14.445 l 151.965 1.949 l h
219.523 14.617 m 232.02 27.117 l 244.688 14.449 l 232.176 1.949 l h
100.5 17.383 m 113.168 30.035 l 125.668 17.539 l 113 4.871 l h
259.301 17.383 m 271.965 30.035 l 284.465 17.539 l 271.797 4.871 l h
160.094 42.219 m 172.594 54.719 l 185.262 42.051 l 172.75 29.555 l h
198.414 42.219 m 210.914 54.719 l 223.41 42.219 l 210.914 29.879 l h
121.609 44.66 m 134.277 57.317 l 146.773 44.817 l 134.109 32.149 l h
237.219 44.66 m 249.883 57.317 l 262.383 44.817 l 249.715 32.149 l h
82.641 48.883 m 95.309 61.535 l 107.805 49.039 l 95.141 36.371 l h
276.188 48.883 m 288.852 61.535 l 301.352 49.039 l 288.684 36.371 l h
45.465 56.508 m 58.117 69.172 l 70.625 56.676 l 57.961 44.168 l h
314.996 56.508 m 327.66 69.176 l 340.316 56.508 l 327.656 44.168 l h
179.738 69.016 m 192.406 81.672 l 204.902 69.172 l 192.234 56.504 l h
141.91 70.473 m 154.566 83.137 l 167.074 70.641 l 154.406 58.129 l h
216.926 70.473 m 229.578 83.137 l 242.051 70.676 l 229.605 58.207 l h
104.559 74.418 m 117.363 86.707 l 129.887 74.367 l 117.223 61.699 l h
254.27 74.371 m 266.77 86.867 l 279.266 74.371 l 266.77 62.028 l h
67.703 80.707 m 80.043 93.36 l 92.707 80.707 l 80.043 68.199 l h
291.449 80.707 m 303.957 93.203 l 316.453 80.695 l 303.945 68.199 l h
160.902 94.672 m 173.41 107.168 l 186.062 94.5 l 173.566 82.16 l h
197.598 94.672 m 210.105 107.168 l 222.605 94.656 l 210.094 82.16 l h
36.371 95.153 m 49.023 107.817 l 61.531 95.32 l 48.867 82.813 l h
322.469 95.153 m 335.121 107.817 l 347.629 95.32 l 334.965 82.813 l h
125.832 97.27 m 138.5 109.922 l 150.996 97.426 l 138.328 84.758 l h
232.996 97.27 m 245.664 109.922 l 258.16 97.426 l 245.492 84.758 l h
89.461 101.813 m 102.125 114.465 l 114.465 101.809 l 102.117 89.305 l h
269.367 101.813 m 282.031 114.465 l 294.371 101.809 l 282.023 89.305 l 
h
4.867 113.016 m 17.535 125.68 l 30.191 113.008 l 17.523 100.344 l h
353.969 113.012 m 366.621 125.676 l 379.129 113.18 l 366.465 100.672 l 
h
61.699 117.235 m 74.363 129.899 l 87.02 117.235 l 80.855 111.063 l 
74.359 104.895 l h
297.137 117.235 m 309.633 129.735 l 322.133 117.235 l 309.633 104.895 l 
h
179.738 117.727 m 192.246 130.223 l 204.898 117.559 l 192.402 105.219 l 
h
145.316 119.028 m 157.824 131.524 l 170.477 118.856 l 157.98 106.516 l 
h
213.512 119.028 m 226.02 131.524 l 238.672 118.856 l 226.176 106.516 l 
h
109.762 123.082 m 122.258 135.578 l 134.926 122.914 l 122.414 110.414 l 
h
249.074 123.082 m 261.574 135.578 l 274.238 122.914 l 261.73 110.414 l 
h
32.148 134.121 m 38.477 140.453 l 44.801 146.785 l 57.312 134.289 l 
51.062 128.035 l 44.645 121.781 l h
326.688 134.121 m 339.344 146.785 l 351.852 134.289 l 339.188 121.781 l 
h
84.754 138.344 m 91.086 144.676 l 97.422 151.008 l 110.074 138.34 l 
103.91 132.172 l 97.414 126 l h
274.082 138.34 m 286.734 151.008 l 299.242 138.512 l 286.578 126 l h
162.852 139.485 m 175.191 152.137 l 187.531 139.477 l 175.184 126.977 l 
h
195.82 139.317 m 208.473 151.981 l 220.98 139.485 l 208.316 126.977 l h
129.402 141.758 m 141.742 154.41 l 154.406 141.758 l 141.742 129.25 l h
229.746 141.758 m 242.258 154.254 l 254.754 141.746 l 242.246 129.25 l 
h
1.945 151.985 m 8.195 158.231 l 14.445 164.481 l 27.113 151.813 l 
20.855 145.567 l 14.602 139.317 l h
356.891 151.981 m 369.469 164.32 l 382.215 152.016 l 369.547 139.313 l 
h
57.961 154.422 m 64.293 160.75 l 70.629 167.078 l 83.125 154.578 l 
70.457 141.91 l h
300.867 154.422 m 313.531 167.074 l 325.797 154.418 l 313.336 141.942 l 
h
106.512 157.828 m 119.012 170.328 l 131.508 157.828 l 119.012 145.485 l 
h
252.48 157.996 m 264.988 170.492 l 277.641 157.824 l 265.145 145.485 l 
h
179.738 158.645 m 192.406 171.297 l 204.902 158.801 l 192.234 146.133 l 
h
146.938 159.617 m 159.449 172.113 l 172.102 159.449 l 159.605 147.11 l 
h
211.887 159.617 m 224.395 172.113 l 237.047 159.449 l 224.551 147.11 l 
h
29.707 172.61 m 35.961 178.856 l 42.215 185.106 l 54.711 172.594 l 
48.457 166.348 l 42.203 160.098 l h
329.445 172.692 m 341.785 185.262 l 354.449 172.598 l 341.945 160.133 l 
h
81.992 173.582 m 94.5 186.078 l 107.152 173.414 l 94.656 161.074 l h
276.836 173.582 m 289.344 186.078 l 301.996 173.414 l 289.5 161.074 l h
126.805 175.207 m 139.469 187.86 l 152.133 175.207 l 139.469 162.695 l 
h
232.02 175.207 m 244.531 187.703 l 257.027 175.195 l 244.516 162.695 l 
h
163.344 176.016 m 176.008 188.68 l 188.66 176.012 l 176.004 163.672 l h
194.844 176.012 m 207.508 188.68 l 220.16 176.012 l 207.504 163.672 l h
0 192.25 m 6.328 198.582 l 12.652 204.914 l 25.16 192.418 l 18.914 
186.164 l 12.496 179.91 l h
56.504 192.25 m 69.156 204.914 l 81.668 192.418 l 69 179.91 l h
105.262 192.203 m 117.559 204.91 l 130.207 192.25 l 117.711 179.91 l h
146.133 192.25 m 158.785 204.914 l 171.293 192.418 l 158.629 179.91 l h
179.738 192.418 m 192.246 204.914 l 204.898 192.25 l 192.402 179.91 l h
212.707 192.25 m 225.359 204.914 l 237.867 192.418 l 225.203 179.91 l h
253.777 192.418 m 266.289 204.914 l 278.941 192.25 l 266.445 179.91 l h
302.332 192.25 m 314.984 204.914 l 327.496 192.418 l 314.832 179.91 l h
358.84 192.25 m 371.492 204.914 l 384 192.418 l 371.336 179.91 l h
163.5 208.004 m 176.008 220.5 l 188.66 207.836 l 176.164 195.496 l h
195 208.004 m 207.508 220.5 l 220.16 207.836 l 207.664 195.496 l h
126.805 208.328 m 139.469 220.981 l 152.133 208.328 l 139.469 195.82 l 
h
232.02 208.328 m 244.688 220.985 l 257.188 208.485 l 244.52 195.82 l h
276.672 210.145 m 289.504 222.438 l 302 210.106 l 289.332 197.442 l h
82.156 210.113 m 94.656 222.61 l 107.152 210.113 l 94.656 197.77 l h
29.707 210.926 m 42.215 223.422 l 54.711 210.914 l 42.203 198.418 l h
329.445 210.926 m 341.785 223.578 l 354.449 210.926 l 341.785 198.418 l 
h
147.105 224.399 m 159.605 236.899 l 172.102 224.399 l 159.605 212.059 l 
h
211.887 224.567 m 224.395 237.063 l 237.047 224.399 l 224.551 212.059 l 
h
179.738 225.215 m 186.07 231.543 l 192.406 237.871 l 204.902 225.371 l 
198.57 219.039 l 192.234 212.707 l h
106.348 226.192 m 118.855 238.688 l 131.508 226.024 l 119.012 213.68 l 
h
252.48 226.192 m 264.988 238.688 l 277.641 226.024 l 265.145 213.68 l h
57.961 229.438 m 70.629 242.094 l 83.125 229.594 l 70.457 216.926 l h
300.867 229.438 m 313.531 242.094 l 326.031 229.594 l 313.363 216.926 l 
h
1.945 232.195 m 14.445 244.692 l 27.113 232.024 l 14.602 219.528 l h
357.047 232.035 m 369.555 244.531 l 382.051 232.024 l 369.543 219.528 l 
h
129.246 242.262 m 141.742 254.758 l 154.41 242.094 l 141.898 229.594 l 
h
229.59 242.258 m 242.25 254.598 l 254.91 242.258 l 242.246 229.59 l h
195.816 244.535 m 208.48 257.199 l 221.137 244.531 l 208.473 231.863 l 
h
162.691 244.535 m 168.941 250.781 l 175.191 257.031 l 187.691 244.535 l 
181.523 238.363 l 175.191 232.192 l h
84.758 245.508 m 97.41 258.172 l 109.918 245.676 l 97.254 233.164 l h
274.082 245.508 m 286.734 258.172 l 299.242 245.676 l 286.578 233.164 l 
h
32.148 249.727 m 44.801 262.395 l 57.312 249.895 l 44.645 237.387 l h
326.688 249.727 m 339.344 262.395 l 351.852 249.895 l 339.188 237.387 l 
h
109.762 261.094 m 122.258 273.594 l 134.926 260.926 l 122.414 248.43 l 
h
249.074 261.094 m 261.574 273.594 l 274.238 260.926 l 261.73 248.43 l h
145.316 265.16 m 151.57 271.406 l 157.824 277.656 l 170.477 264.992 l 
164.312 258.82 l 157.98 252.649 l h
213.676 264.992 m 226.176 277.492 l 238.676 264.992 l 226.176 252.649 l 
h
179.738 266.457 m 192.246 278.953 l 204.898 266.289 l 192.402 253.949 l 
h
61.855 266.781 m 74.367 279.278 l 86.863 266.77 l 74.352 254.274 l h
297.184 266.57 m 309.637 279.434 l 322.301 266.781 l 309.633 254.274 l 
h
4.867 271.813 m 17.535 284.477 l 30.191 271.809 l 17.523 259.145 l h
353.965 271.813 m 366.629 284.477 l 379.285 271.809 l 366.621 259.145 l 
h
89.461 282.047 m 102.125 294.699 l 114.625 282.203 l 101.957 269.535 l 
h
269.367 282.047 m 282.031 294.699 l 294.531 282.203 l 281.863 269.535 l 
h
125.832 286.594 m 132.164 292.918 l 138.5 299.246 l 150.996 286.75 l 
144.664 280.414 l 138.328 274.082 l h
232.996 286.594 m 245.66 299.246 l 258 286.586 l 245.652 274.082 l h
36.367 288.699 m 49.035 301.363 l 61.68 288.707 l 48.898 276.438 l h
322.469 288.695 m 335.121 301.363 l 347.629 288.863 l 334.965 276.356 l 
h
197.441 289.348 m 210.105 302.012 l 222.762 289.344 l 210.098 276.68 l 
h
161.07 289.348 m 173.566 301.848 l 186.066 289.348 l 173.566 277.008 l 
h
67.543 303.313 m 80.043 315.809 l 92.539 303.313 l 80.043 290.969 l h
291.293 303.309 m 303.953 315.649 l 316.609 303.309 l 303.953 290.969 l 
h
104.723 309.649 m 110.977 315.899 l 117.23 322.145 l 129.727 309.637 l 
123.473 303.387 l 117.219 297.141 l h
254.102 309.649 m 266.77 322.301 l 279.109 309.641 l 266.762 297.141 l 
h
141.91 313.379 m 154.566 326.043 l 167.074 313.547 l 154.406 301.035 l 
h
216.926 313.379 m 229.578 326.043 l 242.09 313.547 l 229.422 301.035 l 
h
179.738 314.844 m 192.406 327.5 l 204.902 315 l 192.234 302.332 l h
45.465 327.34 m 58.117 340.004 l 70.625 327.508 l 57.961 315 l h
314.996 327.344 m 327.66 340.008 l 340.316 327.34 l 327.656 315 l h
82.641 334.977 m 95.305 347.629 l 107.645 334.973 l 95.301 322.469 l h
276.188 334.977 m 288.852 347.633 l 301.352 335.133 l 288.684 322.469 l 
h
121.609 339.199 m 134.277 351.856 l 146.773 339.356 l 134.109 326.688 l 
h
237.219 339.199 m 249.883 351.856 l 262.383 339.356 l 249.715 326.688 l 
h
160.254 341.797 m 172.594 354.449 l 185.258 341.797 l 172.594 329.289 l 
h
198.574 341.797 m 210.914 354.449 l 223.578 341.797 l 210.914 329.289 l 
h
100.5 366.477 m 113.168 379.133 l 125.668 366.633 l 113 353.969 l h
259.301 366.477 m 271.965 379.133 l 284.465 366.633 l 271.797 353.969 l 
h
139.312 369.559 m 151.809 382.059 l 164.477 369.391 l 151.965 356.891 l 
h
219.523 369.559 m 232.02 382.059 l 244.688 369.391 l 232.176 356.891 l 
h
179.738 371.348 m 192.406 384.004 l 204.902 371.504 l 192.234 358.84 l 
h
179.738 371.348 m f
Q Q
showpage
%%Trailer
count op_count sub {pop} repeat
countdictstack dict_count sub {end} repeat
cairo_eps_state restore
%%EOF
